Final Project Proposal: COVID-19 Dataset
…
library(tidyverse)

covid <- read_csv("data/covid-data.csv")
#glimpse(covid)

Draft Report

###Exploratory Data Analysis

covid_final_date <- covid %>% 
  filter(date == "2020-10-05" & !is.na(continent)) %>% 
  print(covid_final_date)

## # A tibble: 209 x 41
##    iso_code continent location date       total_cases new_cases new_cases_smoot
##    <chr>    <chr>     <chr>    <date>           <dbl>     <dbl>            <dbl>
##  1 ABW      North Am Aruba    2020-10-05        4079         5           33.6  
##  2 AFG      Asia      Afghani 2020-10-05       39341        44           16.3  
##  3 AGO      Africa    Angola   2020-10-05        5370       159           99.7  
##  4 AIA      North Am Anguilla 2020-10-05           3         0            0    
##  5 ALB      Europe    Albania  2020-10-05       14266       149          144.   
##  6 AND      Europe    Andorra  2020-10-05        2110         0           39.1  
##  7 ARE      Asia      United  2020-10-05       98801      1041         1047.   
##  8 ARG      South Am Argenti 2020-10-05      798473      7668        12452.   
##  9 ARM      Asia      Armenia  2020-10-05       52496       571          442.   
## 10 ATG      North Am Antigua 2020-10-05         107         0            0.857
## #  with 199 more rows, and 34 more variables: total_deaths <dbl>,
## #   new_deaths <dbl>, new_deaths_smoothed <dbl>, total_cases_per_million <dbl>,
## #   new_cases_per_million <dbl>, new_cases_smoothed_per_million <dbl>,
## #   total_deaths_per_million <dbl>, new_deaths_per_million <dbl>,
## #   new_deaths_smoothed_per_million <dbl>, new_tests <lgl>, total_tests <lgl>,
## #   total_tests_per_thousand <lgl>, new_tests_per_thousand <lgl>,
## #   new_tests_smoothed <lgl>, new_tests_smoothed_per_thousand <lgl>,
## #   tests_per_case <lgl>, positive_rate <lgl>, tests_units <lgl>,
## #   stringency_index <dbl>, population <dbl>, population_density <dbl>,
…
covid_stringency <- covid_final_date %>%
  filter(!is.na(stringency_index)) %>%
  arrange(desc(stringency_index)) %>%
  select(stringency_index, location) %>%
  print(covid_stringency)

## # A tibble: 82 x 2
##    stringency_index location           
##               <dbl> <chr>              
##  1             87.0 Panama             
##  2             86.1 Eritrea            
##  3             82.4 Palestine          
##  4             81.5 Paraguay           
##  5             81.0 Myanmar            
##  6             80.6 Trinidad and Tobago
##  7             80.1 Bangladesh         
##  8             76.8 Nepal              
##  9             75.9 Dominican Republic 
## 10             75.9 Gambia             
## #  with 72 more rows
…
  cors[i] <- cor(isolated)[2]
}

correlations <- tibble(cors)
correlations$other_var = col_names
correlations <- correlations %>%
  filter(other_var != "stringency_index")%>% 
  arrange(desc(abs(cors)))

correlations

## # A tibble: 29 x 2
##      cors other_var                      
##     <dbl> <chr>                          
##  1 -0.245 aged_70_older                  
##  2 -0.242 aged_65_older                  
##  3 -0.225 median_age                     
##  4 -0.199 gdp_per_capita                 
##  5 -0.195 female_smokers                 
##  6 -0.194 human_development_index        
##  7 -0.189 hospital_beds_per_thousand     
##  8  0.179 new_deaths_smoothed_per_million
##  9  0.178 new_cases_smoothed_per_million 
## 10 -0.157 life_expectancy                
## #  with 19 more rows
…
glance(m_main)$r.squared

## [1] 0.06625504

In taking the most variables with the largest correlations with the greatest correlations, we can create a linear regression model to attempt to predict a countrys deaths per cases based on its data and demographics.

Draft Report

###Exploratory Data Analysis

covid_final_date <- covid %>% 
  filter(date == "2020-10-05" & !is.na(continent)) %>% 
  print(covid_final_date)

## # A tibble: 209 x 41
##    iso_code continent location date       total_cases new_cases new_cases_smoot
##    <chr>    <chr>     <chr>    <date>           <dbl>     <dbl>            <dbl>
##  1 ABW      North Am Aruba    2020-10-05        4079         5           33.6  
##  2 AFG      Asia      Afghani 2020-10-05       39341        44           16.3  
##  3 AGO      Africa    Angola   2020-10-05        5370       159           99.7  
##  4 AIA      North Am Anguilla 2020-10-05           3         0            0    
##  5 ALB      Europe    Albania  2020-10-05       14266       149          144.   
##  6 AND      Europe    Andorra  2020-10-05        2110         0           39.1  
##  7 ARE      Asia      United  2020-10-05       98801      1041         1047.   
##  8 ARG      South Am Argenti 2020-10-05      798473      7668        12452.   
##  9 ARM      Asia      Armenia  2020-10-05       52496       571          442.   
## 10 ATG      North Am Antigua 2020-10-05         107         0            0.857
## #  with 199 more rows, and 34 more variables: total_deaths <dbl>,
## #   new_deaths <dbl>, new_deaths_smoothed <dbl>, total_cases_per_million <dbl>,
## #   new_cases_per_million <dbl>, new_cases_smoothed_per_million <dbl>,
## #   total_deaths_per_million <dbl>, new_deaths_per_million <dbl>,
## #   new_deaths_smoothed_per_million <dbl>, new_tests <lgl>, total_tests <lgl>,
## #   total_tests_per_thousand <lgl>, new_tests_per_thousand <lgl>,
## #   new_tests_smoothed <lgl>, new_tests_smoothed_per_thousand <lgl>,
## #   tests_per_case <lgl>, positive_rate <lgl>, tests_units <lgl>,
## #   stringency_index <dbl>, population <dbl>, population_density <dbl>,
…
covid_stringency <- covid_final_date %>%
  filter(!is.na(stringency_index)) %>%
  arrange(desc(stringency_index)) %>%
  select(stringency_index, location) %>%
  print(covid_stringency)

## # A tibble: 82 x 2
##    stringency_index location           
##               <dbl> <chr>              
##  1             87.0 Panama             
##  2             86.1 Eritrea            
##  3             82.4 Palestine          
##  4             81.5 Paraguay           
##  5             81.0 Myanmar            
##  6             80.6 Trinidad and Tobago
##  7             80.1 Bangladesh         
##  8             76.8 Nepal              
##  9             75.9 Dominican Republic 
## 10             75.9 Gambia             
## #  with 72 more rows
…
  cors[i] <- cor(isolated)[2]
}

correlations <- tibble(cors)
correlations$other_var = col_names
correlations <- correlations %>%
  filter(other_var != "stringency_index")%>% 
  arrange(desc(abs(cors)))

correlations

## # A tibble: 31 x 2
##      cors other_var                      
##     <dbl> <chr>                          
##  1 -0.245 aged_70_older                  
##  2 -0.242 aged_65_older                  
##  3 -0.225 median_age                     
##  4 -0.199 gdp_per_capita                 
##  5 -0.195 female_smokers                 
##  6 -0.194 human_development_index        
##  7 -0.189 hospital_beds_per_thousand     
##  8  0.179 new_deaths_smoothed_per_million
##  9  0.178 new_cases_smoothed_per_million 
## 10 -0.157 life_expectancy                
## #  with 21 more rows
…
One downfall we see is that countries change their stringency index in reaction ot rising cases. This can give the illusion that theyre more positively correlated than they may (not) be. Thus, we will create a new variable that tracks the factor by which new_cases is changing from day to day. We will check this correlation agains stringency index. After all, a high stringency index is designed to SLOW the spread of a virus - not stop it.

# Make some sort of variable that tracks a factor by which new cases is growing each day.

n_days <- 90

covid_early <- covid %>%
  group_by(location) %>%
  filter(total_cases > 0 & !is.na(stringency_index) & !is.na(new_cases)) %>%
  slice(1:n_days) %>%
  select(continent, location, total_cases, new_cases, stringency_index)

covid_early

## # A tibble: 16,110 x 5
## # Groups:   location [179]
##    continent location    total_cases new_cases stringency_index
##    <chr>     <chr>             <dbl>     <dbl>            <dbl>
##  1 Asia      Afghanistan           1         1             8.33
##  2 Asia      Afghanistan           1         0             8.33
##  3 Asia      Afghanistan           1         0             8.33
##  4 Asia      Afghanistan           1         0             8.33
##  5 Asia      Afghanistan           1         0             8.33
##  6 Asia      Afghanistan           1         0            27.8 
##  7 Asia      Afghanistan           1         0            27.8 
##  8 Asia      Afghanistan           4         3            27.8 
##  9 Asia      Afghanistan           7         3            27.8 
## 10 Asia      Afghanistan          10         3            38.9 
## #  with 16,100 more rows

covid_early %>%
  summarize(cor_var_string = cor(stringency_index, new_cases))

## Warning in cor(stringency_index, new_cases): the standard deviation is zero

## `summarise()` ungrouping output (override with `.groups` argument)

## # A tibble: 179 x 2
##    location    cor_var_string
##    <chr>                <dbl>
##  1 Afghanistan         0.456 
##  2 Albania             0.274 
##  3 Algeria             0.674 
##  4 Andorra            -0.0499
##  5 Angola             -0.0164
##  6 Anguilla            0.105 
##  7 Argentina           0.245 
##  8 Aruba               0.153 
##  9 Australia           0.572 
## 10 Austria             0.539 
## #  with 169 more rows
…
